{
  "info" : {
    "author" : "zeplin",
    "version" : "1"
  },
  "images" : [
    {
      "idiom" : "universal",
      "filename" : "homeParkerTurns2.png",
      "scale" : "1x"
    },
    {
      "idiom" : "universal",
      "filename" : "homeParkerTurns2@2x.png",
      "scale" : "2x"
    },
    {
      "idiom" : "universal",
      "filename" : "homeParkerTurns2@3x.png",
      "scale" : "3x"
    }
  ]
}